<svg width="22" height="21" viewBox="0 0 22 21" fill="none" xmlns="http://www.w3.org/2000/svg">
<path d="M10.4637 1.12041C10.763 0.199099 12.0664 0.199099 12.3658 1.12041L14.1516 6.61653C14.2855 7.02855 14.6694 7.30751 15.1026 7.30751H20.8816C21.8503 7.30751 22.2531 8.54713 21.4694 9.11653L16.7941 12.5133C16.4436 12.768 16.297 13.2193 16.4308 13.6314L18.2166 19.1275C18.516 20.0488 17.4615 20.8149 16.6778 20.2455L12.0025 16.8487C11.652 16.5941 11.1774 16.5941 10.827 16.8487L6.15167 20.2455C5.36796 20.8149 4.31348 20.0488 4.61283 19.1275L6.39863 13.6314C6.5325 13.2193 6.38584 12.768 6.03536 12.5133L1.36008 9.11653C0.576364 8.54713 0.97914 7.30751 1.94786 7.30751H7.72682C8.16005 7.30751 8.54401 7.02855 8.67788 6.61653L10.4637 1.12041Z" fill="#FDAE38"/>
</svg>
